<?xml version="1.0" encoding="UTF-8"?><svg xmlns="http://www.w3.org/2000/svg" xmlns:xlink="http://www.w3.org/1999/xlink" fill-opacity="1" color-rendering="auto" color-interpolation="auto" text-rendering="auto" stroke="black" stroke-linecap="square" width="612" stroke-miterlimit="10" shape-rendering="auto" stroke-opacity="1" fill="black" stroke-dasharray="none" font-weight="normal" stroke-width="1" height="233" font-family="'Dialog'" font-style="normal" stroke-linejoin="miter" font-size="12px" stroke-dashoffset="0" image-rendering="auto">
  <!--Generated by ySVG 2.5-->
  <defs id="genericDefs"/>
  <g>
    <defs id="defs1">
      <linearGradient x1="295.84" gradientUnits="userSpaceOnUse" x2="375.84" y1="322.32" y2="362.32" id="linearGradient1" spreadMethod="reflect">
        <stop stop-opacity="1" stop-color="rgb(232,238,247)" offset="0%"/>
        <stop stop-opacity="1" stop-color="rgb(183,201,227)" offset="100%"/>
      </linearGradient>
      <linearGradient x1="188.784" gradientUnits="userSpaceOnUse" x2="248.784" y1="322.32" y2="362.32" id="linearGradient2" spreadMethod="reflect">
        <stop stop-opacity="1" stop-color="rgb(232,238,247)" offset="0%"/>
        <stop stop-opacity="1" stop-color="rgb(183,201,227)" offset="100%"/>
      </linearGradient>
      <linearGradient x1="413.856" gradientUnits="userSpaceOnUse" x2="473.856" y1="322.32" y2="362.32" id="linearGradient3" spreadMethod="reflect">
        <stop stop-opacity="1" stop-color="rgb(232,238,247)" offset="0%"/>
        <stop stop-opacity="1" stop-color="rgb(183,201,227)" offset="100%"/>
      </linearGradient>
      <linearGradient x1="511.872" gradientUnits="userSpaceOnUse" x2="591.872" y1="322.32" y2="362.32" id="linearGradient4" spreadMethod="reflect">
        <stop stop-opacity="1" stop-color="rgb(232,238,247)" offset="0%"/>
        <stop stop-opacity="1" stop-color="rgb(183,201,227)" offset="100%"/>
      </linearGradient>
      <linearGradient x1="629.888" gradientUnits="userSpaceOnUse" x2="689.888" y1="322.32" y2="362.32" id="linearGradient5" spreadMethod="reflect">
        <stop stop-opacity="1" stop-color="rgb(232,238,247)" offset="0%"/>
        <stop stop-opacity="1" stop-color="rgb(183,201,227)" offset="100%"/>
      </linearGradient>
      <clipPath clipPathUnits="userSpaceOnUse" id="clipPath1">
        <path d="M0 0 L612 0 L612 233 L0 233 L0 0 Z"/>
      </clipPath>
      <clipPath clipPathUnits="userSpaceOnUse" id="clipPath2">
        <path d="M134 226 L746 226 L746 459 L134 459 L134 226 Z"/>
      </clipPath>
    </defs>
    <g fill="white" text-rendering="geometricPrecision" shape-rendering="geometricPrecision" transform="translate(-134,-226)" stroke="white">
      <rect x="134" width="612" height="233" y="226" clip-path="url(#clipPath2)" stroke="none"/>
    </g>
    <g fill="url(#linearGradient1)" text-rendering="geometricPrecision" shape-rendering="geometricPrecision" transform="matrix(1,0,0,1,-134,-226)" stroke="url(#linearGradient1)">
      <path d="M295.84 322.32 L365.84 322.32 L375.84 342.32 L365.84 362.32 L295.84 362.32 Z" stroke="none" clip-path="url(#clipPath2)"/>
    </g>
    <g text-rendering="geometricPrecision" stroke-miterlimit="1.45" shape-rendering="geometricPrecision" transform="matrix(1,0,0,1,-134,-226)" stroke-linecap="butt">
      <path fill="none" d="M295.84 322.32 L365.84 322.32 L375.84 342.32 L365.84 362.32 L295.84 362.32 Z" clip-path="url(#clipPath2)"/>
      <text x="315.4992" xml:space="preserve" y="347.0339" clip-path="url(#clipPath2)" font-family="sans-serif" stroke="none">Försteg</text>
    </g>
    <g fill="url(#linearGradient2)" text-rendering="geometricPrecision" shape-rendering="geometricPrecision" transform="matrix(1,0,0,1,-134,-226)" stroke="url(#linearGradient2)">
      <path d="M188.784 330.32 C190.584 322.32 246.984 322.32 248.784 330.32 L248.784 354.32 C246.984 362.32 190.584 362.32 188.784 354.32 Z" stroke="none" clip-path="url(#clipPath2)"/>
    </g>
    <g text-rendering="geometricPrecision" stroke-miterlimit="1.45" shape-rendering="geometricPrecision" transform="matrix(1,0,0,1,-134,-226)" stroke-linecap="butt">
      <path fill="none" d="M188.784 330.32 C190.584 322.32 246.984 322.32 248.784 330.32 L248.784 354.32 C246.984 362.32 190.584 362.32 188.784 354.32 Z" clip-path="url(#clipPath2)"/>
      <path fill="none" d="M248.784 330.32 C246.984 338.32 190.584 338.32 188.784 330.32" clip-path="url(#clipPath2)"/>
      <text x="203.4471" xml:space="preserve" y="350.5883" clip-path="url(#clipPath2)" font-family="sans-serif" stroke="none">Skript</text>
    </g>
    <g fill="url(#linearGradient3)" text-rendering="geometricPrecision" shape-rendering="geometricPrecision" transform="matrix(1,0,0,1,-134,-226)" stroke="url(#linearGradient3)">
      <path d="M413.856 330.32 C415.656 322.32 472.056 322.32 473.856 330.32 L473.856 354.32 C472.056 362.32 415.656 362.32 413.856 354.32 Z" stroke="none" clip-path="url(#clipPath2)"/>
    </g>
    <g text-rendering="geometricPrecision" stroke-miterlimit="1.45" shape-rendering="geometricPrecision" transform="matrix(1,0,0,1,-134,-226)" stroke-linecap="butt">
      <path fill="none" d="M413.856 330.32 C415.656 322.32 472.056 322.32 473.856 330.32 L473.856 354.32 C472.056 362.32 415.656 362.32 413.856 354.32 Z" clip-path="url(#clipPath2)"/>
      <path fill="none" d="M473.856 330.32 C472.056 338.32 415.656 338.32 413.856 330.32" clip-path="url(#clipPath2)"/>
      <text x="422.8384" xml:space="preserve" y="350.5883" clip-path="url(#clipPath2)" font-family="sans-serif" stroke="none">Innehåll</text>
    </g>
    <g fill="url(#linearGradient4)" text-rendering="geometricPrecision" shape-rendering="geometricPrecision" transform="matrix(1,0,0,1,-134,-226)" stroke="url(#linearGradient4)">
      <path d="M511.872 322.32 L581.872 322.32 L591.872 342.32 L581.872 362.32 L511.872 362.32 Z" stroke="none" clip-path="url(#clipPath2)"/>
    </g>
    <g text-rendering="geometricPrecision" stroke-miterlimit="1.45" shape-rendering="geometricPrecision" transform="matrix(1,0,0,1,-134,-226)" stroke-linecap="butt">
      <path fill="none" d="M511.872 322.32 L581.872 322.32 L591.872 342.32 L581.872 362.32 L511.872 362.32 Z" clip-path="url(#clipPath2)"/>
      <text x="521.1894" xml:space="preserve" y="347.0339" clip-path="url(#clipPath2)" font-family="sans-serif" stroke="none">Extrahering</text>
    </g>
    <g fill="url(#linearGradient5)" text-rendering="geometricPrecision" shape-rendering="geometricPrecision" transform="matrix(1,0,0,1,-134,-226)" stroke="url(#linearGradient5)">
      <path d="M629.888 330.32 C631.688 322.32 688.088 322.32 689.888 330.32 L689.888 354.32 C688.088 362.32 631.688 362.32 629.888 354.32 Z" stroke="none" clip-path="url(#clipPath2)"/>
    </g>
    <g text-rendering="geometricPrecision" stroke-miterlimit="1.45" shape-rendering="geometricPrecision" transform="matrix(1,0,0,1,-134,-226)" stroke-linecap="butt">
      <path fill="none" d="M629.888 330.32 C631.688 322.32 688.088 322.32 689.888 330.32 L689.888 354.32 C688.088 362.32 631.688 362.32 629.888 354.32 Z" clip-path="url(#clipPath2)"/>
      <path fill="none" d="M689.888 330.32 C688.088 338.32 631.688 338.32 629.888 330.32" clip-path="url(#clipPath2)"/>
      <text x="642.2103" xml:space="preserve" y="350.5883" clip-path="url(#clipPath2)" font-family="sans-serif" stroke="none">Utdata</text>
    </g>
    <g text-rendering="geometricPrecision" stroke-miterlimit="1.45" shape-rendering="geometricPrecision" transform="matrix(1,0,0,1,-134,-226)" stroke-linecap="butt">
      <path fill="none" d="M149.664 398.68 L149.664 392.32 L287.904 392.32 L287.904 398.68" clip-path="url(#clipPath2)"/>
      <text x="176.4295" xml:space="preserve" y="407.7727" clip-path="url(#clipPath2)" font-family="sans-serif" stroke="none">Innehåller skript</text>
      <text x="153.074" xml:space="preserve" y="422.4739" clip-path="url(#clipPath2)" font-family="sans-serif" stroke="none">och data för att generera</text>
      <text x="155.0897" xml:space="preserve" y="437.175" clip-path="url(#clipPath2)" font-family="sans-serif" stroke="none">innehåll programmatiskt</text>
    </g>
    <g text-rendering="geometricPrecision" stroke-miterlimit="1.45" shape-rendering="geometricPrecision" transform="matrix(1,0,0,1,-134,-226)" stroke-linecap="butt">
      <path fill="none" d="M270.24 285.96 L270.24 292.32 L401.44 292.32 L401.44 285.96" clip-path="url(#clipPath2)"/>
      <text x="276.8127" xml:space="preserve" y="256.8927" clip-path="url(#clipPath2)" font-family="sans-serif" stroke="none">Automatisk körning av</text>
      <text x="282.1564" xml:space="preserve" y="271.5939" clip-path="url(#clipPath2)" font-family="sans-serif" stroke="none">skript med syfte att</text>
      <text x="289.4718" xml:space="preserve" y="286.295" clip-path="url(#clipPath2)" font-family="sans-serif" stroke="none">generara innehåll</text>
    </g>
    <g text-rendering="geometricPrecision" stroke-miterlimit="1.45" shape-rendering="geometricPrecision" transform="matrix(1,0,0,1,-134,-226)" stroke-linecap="butt">
      <path fill="none" d="M374.736 398.68 L374.736 392.32 L512.976 392.32 L512.976 398.68" clip-path="url(#clipPath2)"/>
      <text x="380.4927" xml:space="preserve" y="407.7727" clip-path="url(#clipPath2)" font-family="sans-serif" stroke="none">Innehåll som lämpar sig</text>
      <text x="376.8277" xml:space="preserve" y="422.4739" clip-path="url(#clipPath2)" font-family="sans-serif" stroke="none">för extrahering till diverse</text>
      <text x="427.1743" xml:space="preserve" y="437.175" clip-path="url(#clipPath2)" font-family="sans-serif" stroke="none">utdata</text>
    </g>
    <g text-rendering="geometricPrecision" stroke-miterlimit="1.45" shape-rendering="geometricPrecision" transform="matrix(1,0,0,1,-134,-226)" stroke-linecap="butt">
      <path fill="none" d="M480.832 285.96 L480.832 292.32 L622.912 292.32 L622.912 285.96" clip-path="url(#clipPath2)"/>
      <text x="483.1738" xml:space="preserve" y="256.8927" clip-path="url(#clipPath2)" font-family="sans-serif" stroke="none">Automatisk körning av</text>
      <text x="499.8554" xml:space="preserve" y="271.5939" clip-path="url(#clipPath2)" font-family="sans-serif" stroke="none">skript med syfte att</text>
      <text x="509.5058" xml:space="preserve" y="286.295" clip-path="url(#clipPath2)" font-family="sans-serif" stroke="none">generera utdata</text>
    </g>
    <g text-rendering="geometricPrecision" stroke-miterlimit="1.45" shape-rendering="geometricPrecision" transform="matrix(1,0,0,1,-134,-226)" stroke-linecap="butt">
      <path fill="none" d="M591.872 398.68 L591.872 392.32 L730.112 392.32 L730.112 398.68" clip-path="url(#clipPath2)"/>
      <text x="599.9608" xml:space="preserve" y="415.1233" clip-path="url(#clipPath2)" font-family="sans-serif" stroke="none">Färdigt utdata i diverse</text>
      <text x="643.9881" xml:space="preserve" y="429.8245" clip-path="url(#clipPath2)" font-family="sans-serif" stroke="none">format</text>
    </g>
    <g text-rendering="geometricPrecision" stroke-miterlimit="1.45" shape-rendering="geometricPrecision" transform="matrix(1,0,0,1,-134,-226)" stroke-linecap="butt">
      <path fill="none" d="M248.7625 342.32 L287.8303 342.32" clip-path="url(#clipPath2)"/>
    </g>
    <g text-rendering="geometricPrecision" stroke-miterlimit="1.45" shape-rendering="geometricPrecision" transform="matrix(1,0,0,1,-134,-226)" stroke-linecap="butt">
      <path d="M295.8303 342.32 L283.8303 337.32 L286.8303 342.32 L283.8303 347.32 Z" stroke="none" clip-path="url(#clipPath2)"/>
      <path fill="none" d="M375.8449 342.32 L405.8687 342.32" clip-path="url(#clipPath2)"/>
      <path d="M413.8687 342.32 L401.8687 337.32 L404.8687 342.32 L401.8687 347.32 Z" clip-path="url(#clipPath2)" stroke="none"/>
      <path fill="none" d="M473.8399 342.32 L503.9034 342.32" clip-path="url(#clipPath2)"/>
      <path d="M511.9034 342.32 L499.9034 337.32 L502.9034 342.32 L499.9034 347.32 Z" clip-path="url(#clipPath2)" stroke="none"/>
      <path fill="none" d="M591.877 342.32 L621.9007 342.32" clip-path="url(#clipPath2)"/>
      <path d="M629.9007 342.32 L617.9007 337.32 L620.9007 342.32 L617.9007 347.32 Z" clip-path="url(#clipPath2)" stroke="none"/>
      <path fill="none" d="M218.784 392.3064 L218.784 368.3327" clip-path="url(#clipPath2)"/>
      <path d="M218.784 360.3327 L213.784 372.3327 L218.784 369.3327 L223.784 372.3327 Z" clip-path="url(#clipPath2)" stroke="none"/>
      <path fill="none" d="M335.84 292.3336 L335.84 314.3547" clip-path="url(#clipPath2)"/>
      <path d="M335.84 322.3547 L340.84 310.3547 L335.84 313.3547 L330.84 310.3547 Z" clip-path="url(#clipPath2)" stroke="none"/>
      <path fill="none" d="M443.856 392.3064 L443.856 368.3327" clip-path="url(#clipPath2)"/>
      <path d="M443.856 360.3327 L438.856 372.3327 L443.856 369.3327 L448.856 372.3327 Z" clip-path="url(#clipPath2)" stroke="none"/>
      <path fill="none" d="M551.872 292.3336 L551.872 314.3547" clip-path="url(#clipPath2)"/>
      <path d="M551.872 322.3547 L556.872 310.3547 L551.872 313.3547 L546.872 310.3547 Z" clip-path="url(#clipPath2)" stroke="none"/>
      <path fill="none" d="M660.6195 392.3064 L660.2687 368.3318" clip-path="url(#clipPath2)"/>
      <path d="M660.1516 360.3327 L655.3278 372.4045 L660.2833 369.3317 L665.3267 372.2582 Z" clip-path="url(#clipPath2)" stroke="none"/>
    </g>
  </g>
</svg>
